HTTP/1.1 200 OK
Cache-Control: private
Content-Length: 203
Content-Type: application/json; charset=utf-8
Server: Microsoft-IIS/7.5
X-AspNet-Version: 4.0.30319
Set-Cookie: TOKEN=bbc33e82-f120-49b7-b217-4f4519fd89e0
X-Powered-By: ASP.NET
Date: Fri, 16 May 2014 04:25:03 GMT

{"ResponseException":null,"SessionToken":"bbc33e82-f120-49b7-b217-4f4519fd89e0","VersionNo":0,"Items":[{"Fee":10000,"FromDistrictCode":"1A01","ShippingServiceID":1,"ToDistrictCode":"1A06","Weight":100}]}